-------------------------------------------------------------------------------
Test set: es.unex.mydai.vo.UsersDAOTest
-------------------------------------------------------------------------------
Tests run: 1, Failures: 0, Errors: 0, Skipped: 0, Time elapsed: 2.347 sec
